71.229.85.43 - - [28/Jul/2014:11:24:30 -0400] "GET / HTTP/1.1" 200 9002 intbarcoding.com "-" "Mozilla/5.0 (Macintosh; Intel Mac OS X 10_10_0) AppleWebKit/537.36 (KHTML, like Gecko) Chrome/36.0.1985.125 Safari/537.36" "-"
162.252.158.249 - - [28/Jul/2014:11:24:32 -0400] "POST /wp-cron.php?doing_wp_cron=1406561072.3772931098937988281250 HTTP/1.0" 200 - intbarcoding.com "-" "WordPress/4.0-beta2-20140726; http://intbarcoding.com" "-"
71.229.85.43 - - [28/Jul/2014:11:24:33 -0400] "GET /wp-content/themes/intbarcoding/css/style.css HTTP/1.1" 304 - intbarcoding.com "http://intbarcoding.com/" "Mozilla/5.0 (Macintosh; Intel Mac OS X 10_10_0) AppleWebKit/537.36 (KHTML, like Gecko) Chrome/36.0.1985.125 Safari/537.36" "-"
71.229.85.43 - - [28/Jul/2014:11:24:33 -0400] "GET /wp-content/themes/intbarcoding/images/home_icon.svg HTTP/1.1" 304 - intbarcoding.com "http://intbarcoding.com/" "Mozilla/5.0 (Macintosh; Intel Mac OS X 10_10_0) AppleWebKit/537.36 (KHTML, like Gecko) Chrome/36.0.1985.125 Safari/537.36" "-"
71.229.85.43 - - [28/Jul/2014:11:24:33 -0400] "GET /wp-content/themes/intbarcoding/images/logo.svg HTTP/1.1" 304 - intbarcoding.com "http://intbarcoding.com/" "Mozilla/5.0 (Macintosh; Intel Mac OS X 10_10_0) AppleWebKit/537.36 (KHTML, like Gecko) Chrome/36.0.1985.125 Safari/537.36" "-"
71.229.85.43 - - [28/Jul/2014:11:24:33 -0400] "GET /wp-content/themes/intbarcoding/images/quiktrac_hp.png HTTP/1.1" 304 - intbarcoding.com "http://intbarcoding.com/" "Mozilla/5.0 (Macintosh; Intel Mac OS X 10_10_0) AppleWebKit/537.36 (KHTML, like Gecko) Chrome/36.0.1985.125 Safari/537.36" "-"
71.229.85.43 - - [28/Jul/2014:11:24:33 -0400] "GET /wp-content/themes/intbarcoding/images/client_logos.png HTTP/1.1" 304 - intbarcoding.com "http://intbarcoding.com/" "Mozilla/5.0 (Macintosh; Intel Mac OS X 10_10_0) AppleWebKit/537.36 (KHTML, like Gecko) Chrome/36.0.1985.125 Safari/537.36" "-"
71.229.85.43 - - [28/Jul/2014:11:24:33 -0400] "GET /wp-content/themes/intbarcoding/js/modernizr.js HTTP/1.1" 304 - intbarcoding.com "http://intbarcoding.com/" "Mozilla/5.0 (Macintosh; Intel Mac OS X 10_10_0) AppleWebKit/537.36 (KHTML, like Gecko) Chrome/36.0.1985.125 Safari/537.36" "-"
71.229.85.43 - - [28/Jul/2014:11:24:33 -0400] "GET /wp-content/themes/intbarcoding/js/jquery.singlePageNav.js HTTP/1.1" 304 - intbarcoding.com "http://intbarcoding.com/" "Mozilla/5.0 (Macintosh; Intel Mac OS X 10_10_0) AppleWebKit/537.36 (KHTML, like Gecko) Chrome/36.0.1985.125 Safari/537.36" "-"
71.229.85.43 - - [28/Jul/2014:11:24:33 -0400] "GET /wp-content/themes/intbarcoding/js/jquery.backstretch.min.js HTTP/1.1" 304 - intbarcoding.com "http://intbarcoding.com/" "Mozilla/5.0 (Macintosh; Intel Mac OS X 10_10_0) AppleWebKit/537.36 (KHTML, like Gecko) Chrome/36.0.1985.125 Safari/537.36" "-"
71.229.85.43 - - [28/Jul/2014:11:24:33 -0400] "GET /wp-content/themes/intbarcoding/js/jquery.stellar.min.js HTTP/1.1" 304 - intbarcoding.com "http://intbarcoding.com/" "Mozilla/5.0 (Macintosh; Intel Mac OS X 10_10_0) AppleWebKit/537.36 (KHTML, like Gecko) Chrome/36.0.1985.125 Safari/537.36" "-"
71.229.85.43 - - [28/Jul/2014:11:24:33 -0400] "GET /wp-content/themes/intbarcoding/js/scripts.js HTTP/1.1" 304 - intbarcoding.com "http://intbarcoding.com/" "Mozilla/5.0 (Macintosh; Intel Mac OS X 10_10_0) AppleWebKit/537.36 (KHTML, like Gecko) Chrome/36.0.1985.125 Safari/537.36" "-"
71.229.85.43 - - [28/Jul/2014:11:24:33 -0400] "GET /wp-content/themes/intbarcoding/images/footer_logo.svg HTTP/1.1" 304 - intbarcoding.com "http://intbarcoding.com/" "Mozilla/5.0 (Macintosh; Intel Mac OS X 10_10_0) AppleWebKit/537.36 (KHTML, like Gecko) Chrome/36.0.1985.125 Safari/537.36" "-"
71.229.85.43 - - [28/Jul/2014:11:24:34 -0400] "GET /wp-content/themes/intbarcoding/images/header_bg.jpg HTTP/1.1" 304 - intbarcoding.com "http://intbarcoding.com/" "Mozilla/5.0 (Macintosh; Intel Mac OS X 10_10_0) AppleWebKit/537.36 (KHTML, like Gecko) Chrome/36.0.1985.125 Safari/537.36" "-"
162.252.158.249 - - [28/Jul/2014:11:24:49 -0400] "POST /wp-admin/upgrade.php?step=upgrade_db HTTP/1.0" 200 1 intbarcoding.com "-" "WordPress/4.0-beta2-20140726; http://intbarcoding.com" "-"
71.229.85.43 - - [28/Jul/2014:11:24:50 -0400] "GET /about/ HTTP/1.1" 200 10276 intbarcoding.com "http://intbarcoding.com/" "Mozilla/5.0 (Macintosh; Intel Mac OS X 10_10_0) AppleWebKit/537.36 (KHTML, like Gecko) Chrome/36.0.1985.125 Safari/537.36" "-"
71.229.85.43 - - [28/Jul/2014:11:24:51 -0400] "GET /wp-content/themes/intbarcoding/images/about_image.png HTTP/1.1" 304 - intbarcoding.com "http://intbarcoding.com/about/" "Mozilla/5.0 (Macintosh; Intel Mac OS X 10_10_0) AppleWebKit/537.36 (KHTML, like Gecko) Chrome/36.0.1985.125 Safari/537.36" "-"
71.229.85.43 - - [28/Jul/2014:11:24:51 -0400] "GET /wp-content/themes/intbarcoding/images/andy_jacobs.jpg HTTP/1.1" 304 - intbarcoding.com "http://intbarcoding.com/about/" "Mozilla/5.0 (Macintosh; Intel Mac OS X 10_10_0) AppleWebKit/537.36 (KHTML, like Gecko) Chrome/36.0.1985.125 Safari/537.36" "-"
71.229.85.43 - - [28/Jul/2014:11:24:56 -0400] "GET /hardware/ HTTP/1.1" 200 8096 intbarcoding.com "http://intbarcoding.com/about/" "Mozilla/5.0 (Macintosh; Intel Mac OS X 10_10_0) AppleWebKit/537.36 (KHTML, like Gecko) Chrome/36.0.1985.125 Safari/537.36" "-"
71.229.85.43 - - [28/Jul/2014:11:24:57 -0400] "GET /wp-content/themes/intbarcoding/images/hardware_icon.svg HTTP/1.1" 304 - intbarcoding.com "http://intbarcoding.com/hardware/" "Mozilla/5.0 (Macintosh; Intel Mac OS X 10_10_0) AppleWebKit/537.36 (KHTML, like Gecko) Chrome/36.0.1985.125 Safari/537.36" "-"
71.229.85.43 - - [28/Jul/2014:11:24:57 -0400] "GET /wp-content/themes/intbarcoding/images/partner_logos.png HTTP/1.1" 304 - intbarcoding.com "http://intbarcoding.com/hardware/" "Mozilla/5.0 (Macintosh; Intel Mac OS X 10_10_0) AppleWebKit/537.36 (KHTML, like Gecko) Chrome/36.0.1985.125 Safari/537.36" "-"
71.229.85.43 - - [28/Jul/2014:11:24:57 -0400] "GET /wp-content/themes/intbarcoding/images/validated_solutions.png HTTP/1.1" 304 - intbarcoding.com "http://intbarcoding.com/hardware/" "Mozilla/5.0 (Macintosh; Intel Mac OS X 10_10_0) AppleWebKit/537.36 (KHTML, like Gecko) Chrome/36.0.1985.125 Safari/537.36" "-"
71.229.85.43 - - [28/Jul/2014:11:24:57 -0400] "GET /wp-content/themes/intbarcoding/images/hardware_plus_software.svg HTTP/1.1" 304 - intbarcoding.com "http://intbarcoding.com/hardware/" "Mozilla/5.0 (Macintosh; Intel Mac OS X 10_10_0) AppleWebKit/537.36 (KHTML, like Gecko) Chrome/36.0.1985.125 Safari/537.36" "-"
71.229.85.43 - - [28/Jul/2014:11:25:05 -0400] "GET /software/ HTTP/1.1" 200 11431 intbarcoding.com "http://intbarcoding.com/hardware/" "Mozilla/5.0 (Macintosh; Intel Mac OS X 10_10_0) AppleWebKit/537.36 (KHTML, like Gecko) Chrome/36.0.1985.125 Safari/537.36" "-"
71.229.85.43 - - [28/Jul/2014:11:25:05 -0400] "GET /wp-content/themes/intbarcoding/images/software_icon.svg HTTP/1.1" 304 - intbarcoding.com "http://intbarcoding.com/software/" "Mozilla/5.0 (Macintosh; Intel Mac OS X 10_10_0) AppleWebKit/537.36 (KHTML, like Gecko) Chrome/36.0.1985.125 Safari/537.36" "-"
71.229.85.43 - - [28/Jul/2014:11:25:05 -0400] "GET /wp-content/themes/intbarcoding/images/quiktrac_window.png HTTP/1.1" 304 - intbarcoding.com "http://intbarcoding.com/software/" "Mozilla/5.0 (Macintosh; Intel Mac OS X 10_10_0) AppleWebKit/537.36 (KHTML, like Gecko) Chrome/36.0.1985.125 Safari/537.36" "-"
71.229.85.43 - - [28/Jul/2014:11:25:05 -0400] "GET /wp-content/themes/intbarcoding/images/quiktrac_iseries.svg HTTP/1.1" 304 - intbarcoding.com "http://intbarcoding.com/software/" "Mozilla/5.0 (Macintosh; Intel Mac OS X 10_10_0) AppleWebKit/537.36 (KHTML, like Gecko) Chrome/36.0.1985.125 Safari/537.36" "-"
71.229.85.43 - - [28/Jul/2014:11:25:05 -0400] "GET /wp-content/themes/intbarcoding/images/quiktrac_ai.svg HTTP/1.1" 304 - intbarcoding.com "http://intbarcoding.com/software/" "Mozilla/5.0 (Macintosh; Intel Mac OS X 10_10_0) AppleWebKit/537.36 (KHTML, like Gecko) Chrome/36.0.1985.125 Safari/537.36" "-"
71.229.85.43 - - [28/Jul/2014:11:25:05 -0400] "GET /wp-content/themes/intbarcoding/images/quiktrac_mobile.svg HTTP/1.1" 304 - intbarcoding.com "http://intbarcoding.com/software/" "Mozilla/5.0 (Macintosh; Intel Mac OS X 10_10_0) AppleWebKit/537.36 (KHTML, like Gecko) Chrome/36.0.1985.125 Safari/537.36" "-"
71.229.85.43 - - [28/Jul/2014:11:25:14 -0400] "GET /case-studies/ HTTP/1.1" 200 6305 intbarcoding.com "http://intbarcoding.com/software/" "Mozilla/5.0 (Macintosh; Intel Mac OS X 10_10_0) AppleWebKit/537.36 (KHTML, like Gecko) Chrome/36.0.1985.125 Safari/537.36" "-"
71.229.85.43 - - [28/Jul/2014:11:25:16 -0400] "GET /wp-content/uploads/2014/07/Dec_Draper-Inc-1.jpg HTTP/1.1" 304 - intbarcoding.com "http://intbarcoding.com/case-studies/" "Mozilla/5.0 (Macintosh; Intel Mac OS X 10_10_0) AppleWebKit/537.36 (KHTML, like Gecko) Chrome/36.0.1985.125 Safari/537.36" "-"
71.229.85.43 - - [28/Jul/2014:11:25:18 -0400] "GET /case-studies/draper-inc/ HTTP/1.1" 200 12997 intbarcoding.com "http://intbarcoding.com/case-studies/" "Mozilla/5.0 (Macintosh; Intel Mac OS X 10_10_0) AppleWebKit/537.36 (KHTML, like Gecko) Chrome/36.0.1985.125 Safari/537.36" "-"
71.229.85.43 - - [28/Jul/2014:11:26:16 -0400] "GET / HTTP/1.1" 200 9002 intbarcoding.com "-" "Mozilla/5.0 (Macintosh; Intel Mac OS X 10_10) AppleWebKit/538.46 (KHTML, like Gecko)" "-"
71.229.85.43 - - [28/Jul/2014:11:26:17 -0400] "GET /wp-content/themes/intbarcoding/js/scripts.js HTTP/1.1" 304 - intbarcoding.com "http://intbarcoding.com/" "Mozilla/5.0 (Macintosh; Intel Mac OS X 10_10) AppleWebKit/538.46 (KHTML, like Gecko)" "-"
71.229.85.43 - - [28/Jul/2014:11:26:17 -0400] "GET /wp-content/themes/intbarcoding/js/jquery.backstretch.min.js HTTP/1.1" 200 4233 intbarcoding.com "http://intbarcoding.com/" "Mozilla/5.0 (Macintosh; Intel Mac OS X 10_10) AppleWebKit/538.46 (KHTML, like Gecko)" "-"
71.229.85.43 - - [28/Jul/2014:11:26:17 -0400] "GET /wp-content/themes/intbarcoding/js/jquery.singlePageNav.js HTTP/1.1" 200 5543 intbarcoding.com "http://intbarcoding.com/" "Mozilla/5.0 (Macintosh; Intel Mac OS X 10_10) AppleWebKit/538.46 (KHTML, like Gecko)" "-"
71.229.85.43 - - [28/Jul/2014:11:26:17 -0400] "GET /wp-content/themes/intbarcoding/js/modernizr.js HTTP/1.1" 200 15243 intbarcoding.com "http://intbarcoding.com/" "Mozilla/5.0 (Macintosh; Intel Mac OS X 10_10) AppleWebKit/538.46 (KHTML, like Gecko)" "-"
71.229.85.43 - - [28/Jul/2014:11:26:17 -0400] "GET /wp-content/themes/intbarcoding/js/jquery.stellar.min.js HTTP/1.1" 200 12597 intbarcoding.com "http://intbarcoding.com/" "Mozilla/5.0 (Macintosh; Intel Mac OS X 10_10) AppleWebKit/538.46 (KHTML, like Gecko)" "-"
71.229.85.43 - - [28/Jul/2014:11:26:17 -0400] "GET /wp-content/themes/intbarcoding/css/style.css HTTP/1.1" 200 89272 intbarcoding.com "http://intbarcoding.com/" "Mozilla/5.0 (Macintosh; Intel Mac OS X 10_10) AppleWebKit/538.46 (KHTML, like Gecko)" "-"
71.229.85.43 - - [28/Jul/2014:11:26:18 -0400] "GET /wp-content/themes/intbarcoding/images/quiktrac_hp.png HTTP/1.1" 200 15502 intbarcoding.com "http://intbarcoding.com/" "Mozilla/5.0 (Macintosh; Intel Mac OS X 10_10) AppleWebKit/538.46 (KHTML, like Gecko)" "-"
71.229.85.43 - - [28/Jul/2014:11:26:18 -0400] "GET /wp-content/themes/intbarcoding/images/home_icon.svg HTTP/1.1" 200 12637 intbarcoding.com "http://intbarcoding.com/" "Mozilla/5.0 (Macintosh; Intel Mac OS X 10_10) AppleWebKit/538.46 (KHTML, like Gecko)" "-"
71.229.85.43 - - [28/Jul/2014:11:26:18 -0400] "GET /wp-content/themes/intbarcoding/images/footer_logo.svg HTTP/1.1" 200 1573 intbarcoding.com "http://intbarcoding.com/" "Mozilla/5.0 (Macintosh; Intel Mac OS X 10_10) AppleWebKit/538.46 (KHTML, like Gecko)" "-"
71.229.85.43 - - [28/Jul/2014:11:26:18 -0400] "GET /wp-content/themes/intbarcoding/images/logo.svg HTTP/1.1" 200 5942 intbarcoding.com "http://intbarcoding.com/" "Mozilla/5.0 (Macintosh; Intel Mac OS X 10_10) AppleWebKit/538.46 (KHTML, like Gecko)" "-"
71.229.85.43 - - [28/Jul/2014:11:26:18 -0400] "GET /wp-content/themes/intbarcoding/images/header_bg.jpg HTTP/1.1" 200 90034 intbarcoding.com "http://intbarcoding.com/" "Mozilla/5.0 (Macintosh; Intel Mac OS X 10_10) AppleWebKit/538.46 (KHTML, like Gecko)" "-"
71.229.85.43 - - [28/Jul/2014:11:26:18 -0400] "GET /wp-content/themes/intbarcoding/images/client_logos.png HTTP/1.1" 200 322126 intbarcoding.com "http://intbarcoding.com/" "Mozilla/5.0 (Macintosh; Intel Mac OS X 10_10) AppleWebKit/538.46 (KHTML, like Gecko)" "-"
71.229.85.43 - - [28/Jul/2014:11:26:18 -0400] "GET /wp-content/themes/intbarcoding/favicon.png HTTP/1.1" 200 1932 intbarcoding.com "http://intbarcoding.com/" "Mozilla/5.0 (Macintosh; Intel Mac OS X 10_10) AppleWebKit/538.46 (KHTML, like Gecko)" "-"
71.229.85.43 - - [28/Jul/2014:11:26:21 -0400] "GET /apple-touch-icon-precomposed.png HTTP/1.1" 200 2738 intbarcoding.com "-" "Coda/3410 CFNetwork/705 Darwin/14.0.0 (x86_64)" "-"
71.229.85.43 - - [28/Jul/2014:11:26:23 -0400] "GET /apple-touch-icon.png HTTP/1.1" 200 2738 intbarcoding.com "-" "Coda/3410 CFNetwork/705 Darwin/14.0.0 (x86_64)" "-"
71.229.85.43 - - [28/Jul/2014:11:43:51 -0400] "GET /case-studies/draper-inc/ HTTP/1.1" 200 12997 intbarcoding.com "-" "Mozilla/5.0 (Macintosh; Intel Mac OS X 10_10_0) AppleWebKit/537.36 (KHTML, like Gecko) Chrome/36.0.1985.125 Safari/537.36" "-"
71.229.85.43 - - [28/Jul/2014:11:43:52 -0400] "GET /wp-content/themes/intbarcoding/css/style.css HTTP/1.1" 304 - intbarcoding.com "http://intbarcoding.com/case-studies/draper-inc/" "Mozilla/5.0 (Macintosh; Intel Mac OS X 10_10_0) AppleWebKit/537.36 (KHTML, like Gecko) Chrome/36.0.1985.125 Safari/537.36" "-"
71.229.85.43 - - [28/Jul/2014:11:43:52 -0400] "GET /wp-content/themes/intbarcoding/js/jquery.singlePageNav.js HTTP/1.1" 304 - intbarcoding.com "http://intbarcoding.com/case-studies/draper-inc/" "Mozilla/5.0 (Macintosh; Intel Mac OS X 10_10_0) AppleWebKit/537.36 (KHTML, like Gecko) Chrome/36.0.1985.125 Safari/537.36" "-"
71.229.85.43 - - [28/Jul/2014:11:43:52 -0400] "GET /wp-content/themes/intbarcoding/js/modernizr.js HTTP/1.1" 304 - intbarcoding.com "http://intbarcoding.com/case-studies/draper-inc/" "Mozilla/5.0 (Macintosh; Intel Mac OS X 10_10_0) AppleWebKit/537.36 (KHTML, like Gecko) Chrome/36.0.1985.125 Safari/537.36" "-"
71.229.85.43 - - [28/Jul/2014:11:43:52 -0400] "GET /wp-content/themes/intbarcoding/js/jquery.backstretch.min.js HTTP/1.1" 304 - intbarcoding.com "http://intbarcoding.com/case-studies/draper-inc/" "Mozilla/5.0 (Macintosh; Intel Mac OS X 10_10_0) AppleWebKit/537.36 (KHTML, like Gecko) Chrome/36.0.1985.125 Safari/537.36" "-"
71.229.85.43 - - [28/Jul/2014:11:43:52 -0400] "GET /wp-content/themes/intbarcoding/js/jquery.stellar.min.js HTTP/1.1" 304 - intbarcoding.com "http://intbarcoding.com/case-studies/draper-inc/" "Mozilla/5.0 (Macintosh; Intel Mac OS X 10_10_0) AppleWebKit/537.36 (KHTML, like Gecko) Chrome/36.0.1985.125 Safari/537.36" "-"
71.229.85.43 - - [28/Jul/2014:11:43:52 -0400] "GET /wp-content/themes/intbarcoding/js/scripts.js HTTP/1.1" 304 - intbarcoding.com "http://intbarcoding.com/case-studies/draper-inc/" "Mozilla/5.0 (Macintosh; Intel Mac OS X 10_10_0) AppleWebKit/537.36 (KHTML, like Gecko) Chrome/36.0.1985.125 Safari/537.36" "-"
71.229.85.43 - - [28/Jul/2014:11:43:52 -0400] "GET /wp-content/themes/intbarcoding/images/logo.svg HTTP/1.1" 304 - intbarcoding.com "http://intbarcoding.com/case-studies/draper-inc/" "Mozilla/5.0 (Macintosh; Intel Mac OS X 10_10_0) AppleWebKit/537.36 (KHTML, like Gecko) Chrome/36.0.1985.125 Safari/537.36" "-"
71.229.85.43 - - [28/Jul/2014:11:43:52 -0400] "GET /wp-content/themes/intbarcoding/images/footer_logo.svg HTTP/1.1" 304 - intbarcoding.com "http://intbarcoding.com/case-studies/draper-inc/" "Mozilla/5.0 (Macintosh; Intel Mac OS X 10_10_0) AppleWebKit/537.36 (KHTML, like Gecko) Chrome/36.0.1985.125 Safari/537.36" "-"
71.229.85.43 - - [28/Jul/2014:11:43:52 -0400] "GET /wp-content/uploads/2014/07/Dec_Draper-Inc-1.jpg HTTP/1.1" 304 - intbarcoding.com "http://intbarcoding.com/case-studies/draper-inc/" "Mozilla/5.0 (Macintosh; Intel Mac OS X 10_10_0) AppleWebKit/537.36 (KHTML, like Gecko) Chrome/36.0.1985.125 Safari/537.36" "-"
71.229.85.43 - - [28/Jul/2014:11:43:52 -0400] "GET /wp-content/themes/intbarcoding/images/header_bg.jpg HTTP/1.1" 304 - intbarcoding.com "http://intbarcoding.com/case-studies/draper-inc/" "Mozilla/5.0 (Macintosh; Intel Mac OS X 10_10_0) AppleWebKit/537.36 (KHTML, like Gecko) Chrome/36.0.1985.125 Safari/537.36" "-"
71.229.85.43 - - [28/Jul/2014:11:43:54 -0400] "GET / HTTP/1.1" 200 9002 intbarcoding.com "http://intbarcoding.com/case-studies/draper-inc/" "Mozilla/5.0 (Macintosh; Intel Mac OS X 10_10_0) AppleWebKit/537.36 (KHTML, like Gecko) Chrome/36.0.1985.125 Safari/537.36" "-"
